[
    {
        "id":1,
        "name": "Строка",
        "control": "text",
        "isComplex": false
    },
    {
        "id":2,
        "name": "Число",
        "control": "text",
        "isComplex": false
    },
    {
        "id":3,
        "name": "Галочка",
        "control": "checkbox",
        "isComplex": false
    },
    {
        "id":4,
        "name": "Сложный тип",
        "control": "select",
        "isComplex": true
    }
]